Close co-occurrences of two keywords in a Gallicagram copus — gallicagram_cooccur • rallicagram
…
    Details

    Close co-occurrences correspond to the number of 3-grams
(4-grams in the Le Monde corpus) that contain the two keywords.

This function corresponds to the Contain route of the API.

    Examples

gallicagram_cooccur("président", "mauvais")
#> # A tibble: 936 × 10
#>    date       keywo…¹ keywo…² n_coo…³ n_ngr…⁴ prop_…⁵  year month corpus resol…⁶
#>    <date>     <chr>   <chr>     <dbl>   <int>   <dbl> <int> <int> <chr>  <chr>  
#>  1 1945-01-01 présid… mauvais       0  166925       0  1945     1 lemon… monthly
#>  2 1945-02-01 présid… mauvais       0  162907       0  1945     2 lemon… monthly
#>  3 1945-03-01 présid… mauvais       0  201083       0  1945     3 lemon… monthly
#>  4 1945-04-01 présid… mauvais       0  189895       0  1945     4 lemon… monthly
#>  5 1945-05-01 présid… mauvais       0  208666       0  1945     5 lemon… monthly
#>  6 1945-06-01 présid… mauvais       0  220081       0  1945     6 lemon… monthly
#>  7 1945-07-01 présid… mauvais       0  245302       0  1945     7 lemon… monthly
#>  8 1945-08-01 présid… mauvais       0  239788       0  1945     8 lemon… monthly
#>  9 1945-09-01 présid… mauvais       0  246492       0  1945     9 lemon… monthly
#> 10 1945-10-01 présid… mauvais       0  254720       0  1945    10 lemon… monthly
#> # … with 926 more rows, and abbreviated variable names ¹​keyword_1, ²​keyword_2,
#> #   ³​n_cooccur, ⁴​n_ngrams, ⁵​prop_cooccur, ⁶​resolution
…
