Occurrences of a keyword in a Gallicagram copus — gallicagram • rallicagram
…
    Details

    This function corresponds to the Query route of the API.

Information regarding available characteristics of the corpus can be found
in the list_corpora dataset.

    Examples

  gallicagram("président")
#> # A tibble: 937 × 10
#>    date       keyword   n_occur n_total prop_occur  year month corpus resolution
#>    <date>     <chr>       <int>   <int>      <dbl> <int> <int> <chr>  <chr>     
#>  1 1944-12-01 président     102  125782   0.000811  1944    12 lemon… monthly   
#>  2 1945-12-01 président     306  262131   0.00117   1945     1 lemon… monthly   
#>  3 1945-12-01 président     248  256110   0.000968  1945     2 lemon… monthly   
#>  4 1945-12-01 président     327  313806   0.00104   1945     3 lemon… monthly   
#>  5 1945-12-01 président     565  299972   0.00188   1945     4 lemon… monthly   
#>  6 1945-12-01 président     406  327917   0.00124   1945     5 lemon… monthly   
#>  7 1945-12-01 président     462  341077   0.00135   1945     6 lemon… monthly   
#>  8 1945-12-01 président     633  387425   0.00163   1945     7 lemon… monthly   
#>  9 1945-12-01 président     740  376034   0.00197   1945     8 lemon… monthly   
#> 10 1945-12-01 président     401  382928   0.00105   1945     9 lemon… monthly   
#> # ℹ 927 more rows
#> # ℹ 1 more variable: n_of <chr>
…
